{
  "peer_id": "idsDxp7kn7hfEopgypZA2d6E4monZx",
  "public_key": "4a61e137a6b550f945b48d51a4bd9104862e0718a2891dd97e9a31b7df17f82f",
  "secret_key": "9be606b5d05c9810f1423ae115690c5c734399d47bb3a9c6cd1ce8b0537a3953",
  "proof_of_work_stamp": "9347daa7ded019e0bd56bae0b96baf77761113b3f3281609"
}